{
  "users": [
    {
      "email": "alanPires@gmail.com",
      "password": "$2a$10$TuN1speMggvTmEmg7aC43.OufcydPGYXVrbQLByZ6c7wlnREJKFpu",
      "name": "Alan Pires",
      "cpf": "78489582148",
      "adress": "Rua Alameda",
      "cep": 12155654,
      "select": ["Profissa"],
      "service": "Pedreiro",
      "softSkills": "Sou pontual, organizado e responsável.",
      "hardSkills": "Azulejista, habilidade na operação de máquinas de construção, conhecimento em alvenaria e interpretação de projetos.",
      "about": "Confiável, trabalhador da Construção Civil com mais de 15 anos de experiência. Excelente trabalho em equipe, construções rápidas, com segurança e eficiência.",
      "previousJob": [
        "https://image.freepik.com/fotos-gratis/plugue-de-montagem-do-tecnico-de-colheita_23-2147743071.jpg",
        "https://image.freepik.com/fotos-gratis/construcao-de-casa-nova-residencial-em-andamento-no-canteiro-de-obras_293060-461.jpg",
        "https://image.freepik.com/fotos-gratis/grupo-de-engenheiros-construtores-arquitetos-no-canteiro-de-obras_116407-2715.jpg",
        "https://image.freepik.com/fotos-gratis/canalizador-de-encanamento-com-chave-inglesa_23-2147772228.jpg"
      ],
      "image": "https://image.freepik.com/fotos-gratis/retrato-de-corpo-inteiro-de-um-jovem-construtor-masculino-confiante_171337-5191.jpg",
      "id": 1
    },
    {
      "email": "fran@gmail.com",
      "password": "$2a$10$/aI2VLsMI511Sh78HHzHPuzclxsHGrj6ys1sIPCoyx9Z1DszkZzom",
      "name": "Francielle Rodrigues",
      "cpf": "11445135",
      "adress": "Rua turinhos",
      "cep": 45784654812,
      "select": ["Profissa"],
      "service": "Enfermagem",
      "softSkills": "Sou atenciosa, sei trabalhar em equipe e gosto de sempre me atualizar.",
      "hardSkills": "APH, Urgêcia e Emergêcia",
      "about": "Formada há 10 anos, vasta experência na área hospitalar. Pós-graduação em Urgêcia e Emergêcia",
      "previousJob": [
        "https://image.freepik.com/fotos-gratis/ala-hospitalar-com-leitos-e-equipamentos-medicos_46527-119.jpg",
        "https://image.freepik.com/fotos-gratis/simplesmente-design-minimalista-com-estetoscopio-de-equipamento-de-medicina-ou-phonendoscope_1150-12969.jpg",
        "https://image.freepik.com/fotos-gratis/medico-vestindo-roupas-de-protecao-contra-o-coronavirus-em-uma-ambulancia_143100-449.jpg",
        "https://image.freepik.com/fotos-gratis/enfermeira-verificar-pulso-femininas-paciente-pulso_23-2147861479.jpg"
      ],
      "image": "https://image.freepik.com/fotos-gratis/medico-serio-em-mascara-medica-e-bone-olhando_171337-5807.jpg",
      "id": 2
    },
    {
      "email": "lucas@gmail.com",
      "password": "$2a$10$gSgYJ16x8RB4lZVYNrtADexcI.r.5MLqAr7T.6lGXARiEUk0IRfCW",
      "name": "Lucas Lima",
      "cpf": "48756845415",
      "adress": "Rua Alameda",
      "cep": 11245123,
      "select": ["Profissa"],
      "service": "Personal Trainer",
      "softSkills": "Sou responsável, comunicativo e proativo.",
      "hardSkills": "Professor de Musculação, Treino funcional e Natação",
      "about": "Treinador com 8 anos de experiência. Análise de metabolismo e gestão de peso. Foco para que os clientes consigam obter os resultados desejados.",
      "previousJob": [
        "https://image.freepik.com/fotos-gratis/treino-de-fitness-com-kettlebells_1098-13823.jpg",
        "https://image.freepik.com/fotos-gratis/close-up-de-nadador-masculino-feliz-apertando-outra-mao-de-nadadores_171337-7762.jpg",
        "https://image.freepik.com/fotos-gratis/vista-frontal-jovem-aquecendo_23-2148375927.jpg",
        "https://images.unsplash.com/photo-1517836357463-d25dfeac3438?ixlib=rb-1.2.1&ixid=eyJhcHBfaWQiOjEyMDd9&auto=format&fit=crop&w=1350&q=80"
      ],
      "image": "https://image.freepik.com/fotos-gratis/corredor-afro-americano-com-belo-corpo-atletico-e-cabelo-espesso-alongando-os-musculos-levantando-os-bracos-enquanto-se-aquece-antes-da-sessao-de-treino-matinal_176420-19874.jpg",
      "id": 3
    },
    {
      "email": "yuri@gmail.com",
      "password": "$2a$10$Ih3QeiGXOSyD3V6Fqjfc7.TQMmFqstse9HL0tZZeBuW8O9XMJEa6i",
      "name": "Yuri Roberto",
      "cpf": "84595415478",
      "adress": "Rua Alameda",
      "cep": 14587412,
      "select": ["Profissa"],
      "service": "Pintor",
      "softSkills": "Sou responsável, pontual e proativo.",
      "hardSkills": "Acabamento em massa corrida, gesso, pintura de áreas internas e externas. Aplicação de textura ou grafiato",
      "about": " Experiência de 10 anos na função, atualmente procuro trabalho autônomo, mas já trabalhei em várias Construtoras multinacionais. Orçamentos justos e entregas com qualidade.",
      "previousJob": [
        "https://lirp-cdn.multiscreensite.com/828b2c8a/dms3rep/multi/opt/AdobeStock_216970582-960w.jpeg",
        "https://imagens-revista.vivadecora.com.br/uploads/2019/02/Dicas-para-pintar-a-parede-de-forma-criativa-no-ambiente-440x399.jpg",
        "https://http2.mlstatic.com/pintura-de-parede-D_NQ_NP_820236-MLB43480544967_092020-F.webp",
        "https://image.freepik.com/fotos-gratis/negocio-de-pintura-de-casa_1426-1593.jpg"
      ],
      "image": "https://image.freepik.com/fotos-gratis/parede-de-pintura-trabalhador-com-pistola-na-cor-branca_176420-4737.jpg",
      "id": 4
    },
    {
      "email": "joao@gmail.com",
      "password": "$2a$10$uLrpI2kvqpORPAtgvowh3.rVpc1v96rKBbr81nw.EBKB2XEhUbPES",
      "name": "joao",
      "cpf": "84568417898",
      "adress": "Rua visir",
      "cep": 12547112,
      "select": ["Profissa"],
      "service": "Programador",
      "softSkills": "Sou comunicativo, responsável e gosto de trabalhar em equipe.",
      "hardSkills": "Conhecimento em HTML, CSS, JAVASCRIPT, GIT e React",
      "about": "Experiência de 7 anos na função, domínio de boas práticas de programação. Tenho vários cursos na área.",
      "previousJob": [
        "https://image.freepik.com/fotos-gratis/monitor-de-computador_236854-21701.jpg",
        "https://image.freepik.com/fotos-gratis/ux-ui-e-tecnologia-de-desenvolvimento-de-programacao_1421-4003.jpg",
        "https://image.freepik.com/fotos-gratis/programador-desenvolvedor-profissional-que-trabalha-com-design-de-sites-de-software-e-tecnologia-de-codificacao-escrevendo-codigos-e-banco-de-dados-no-escritorio-da-empresa-tecnologia-global-de-conexao-cibernetica_122498-189.jpg",
        "https://br.freepik.com/vetores-premium/conceito-de-programacao_3512483.htm#page=8&query=JAVASCRIPT&position=13"
      ],
      "image": "https://image.freepik.com/fotos-gratis/estudante-fazendo-licao-de-casa-tarde-da-noite_1098-21540.jpg",
      "id": 5
    },
    {
      "email": "luis@gmail.com",
      "password": "$2a$10$VrZLkBo2dVlNO8yufk/6LunLIygFd7u07iITBIFW0a8jTGxWgcKQO",
      "name": "Luis Santos",
      "cpf": "12568244898",
      "adress": "Rua alameda",
      "cep": 12342222,
      "select": ["Profissa"],
      "service": "Programador",
      "softSkills": "Sou comunicativo, responsável e gosto de trabalhar em equipe.",
      "hardSkills": "Conhecimento em HTML, CSS, JAVASCRIPT, GIT e React",
      "about": "Experiência de 7 anos na função, domínio de boas práticas de programação. Tenho vários cursos na área.",
      "previousJob": [
        "https://image.freepik.com/fotos-gratis/monitor-de-computador_236854-21701.jpg",
        "https://image.freepik.com/fotos-gratis/ux-ui-e-tecnologia-de-desenvolvimento-de-programacao_1421-4003.jpg",
        "https://image.freepik.com/fotos-gratis/programador-desenvolvedor-profissional-que-trabalha-com-design-de-sites-de-software-e-tecnologia-de-codificacao-escrevendo-codigos-e-banco-de-dados-no-escritorio-da-empresa-tecnologia-global-de-conexao-cibernetica_122498-189.jpg",
        "https://images.unsplash.com/photo-1536148935331-408321065b18?ixlib=rb-1.2.1&ixid=eyJhcHBfaWQiOjEyMDd9&auto=format&fit=crop&w=633&q=80"
      ],
      "image": "https://image.freepik.com/fotos-gratis/alegre-jovem-empresario-caucasiano_171337-727.jpg",
      "id": 6
    },
    {
      "email": "filipe@gmail.com",
      "password": "$2a$10$PCajL4BEXgleT5L.v.bHeerTF1qtLaCvxA0Q8NWDi1Zzpu5s0FJUO",
      "name": "filipe",
      "cpf": "32162244312",
      "adress": "Rua quives",
      "cep": 14231321,
      "select": ["Profissa"],
      "service": "Pintor",
      "softSkills": "Sou responsável, pontual e proativo.",
      "hardSkills": "Acabamento em massa corrida, gesso, pintura de áreas internas e externas. Aplicação de textura ou grafiato",
      "about": " Experiência de 10 anos na função, atualmente procuro trabalho autônomo, mas já trabalhei em várias Construtoras multinacionais. Orçamentos justos e entregas com qualidade.",
      "previousJob": [
        "https://lirp-cdn.multiscreensite.com/828b2c8a/dms3rep/multi/opt/AdobeStock_216970582-960w.jpeg",
        "https://imagens-revista.vivadecora.com.br/uploads/2019/02/Dicas-para-pintar-a-parede-de-forma-criativa-no-ambiente-440x399.jpg",
        "https://http2.mlstatic.com/pintura-de-parede-D_NQ_NP_820236-MLB43480544967_092020-F.webp",
        "https://image.freepik.com/fotos-gratis/negocio-de-pintura-de-casa_1426-1593.jpg"
      ],
      "image": "https://image.freepik.com/fotos-gratis/pintor-mascarado-no-trabalho-em-um-apartamento-reforma-e-pintura-em-casa-durante-uma-pandemia-de-coronavirus_53419-9306.jpg",
      "id": 7
    },
    {
      "email": "gabriel@gmail.com",
      "password": "$2a$10$ACgs3mvG0p2gbgnEnaNPX.I5TQIWKDPUHXmGgUz/LePJjmn/HfUvy",
      "name": "gabriel",
      "cpf": "34212221432",
      "adress": "Rua heitor",
      "cep": 32451123,
      "select": ["Profissa"],
      "service": "Idiomas",
      "softSkills": "Sou responsável, pontual e proativo.",
      "hardSkills": "Acabamento em massa corrida, gesso, pintura de áreas internas e externas. Aplicação de textura ou grafiato",
      "about": " Experiência de 10 anos na função, atualmente procuro trabalho autônomo, mas já trabalhei em várias Construtoras multinacionais. Orçamentos justos e entregas com qualidade.",
      "previousJob": [
        "https://lirp-cdn.multiscreensite.com/828b2c8a/dms3rep/multi/opt/AdobeStock_216970582-960w.jpeg",
        "https://imagens-revista.vivadecora.com.br/uploads/2019/02/Dicas-para-pintar-a-parede-de-forma-criativa-no-ambiente-440x399.jpg",
        "https://http2.mlstatic.com/pintura-de-parede-D_NQ_NP_820236-MLB43480544967_092020-F.webp",
        "https://image.freepik.com/fotos-gratis/negocio-de-pintura-de-casa_1426-1593.jpg"
      ],
      "image": "https://image.freepik.com/fotos-gratis/professor-senior-masculino-em-oculos-segurando-caderno-ficar-contra-quadro-negro_23-2148200963.jpg",
      "id": 8
    },
    {
      "email": "fernando@gmail.com",
      "password": "$2a$10$fLZF3hsgsb4rMoZNheooqemcZGQ9uSn4Br/.2qlTEJwIiOqYa6DkW",
      "name": "fernando",
      "cpf": "34212221432",
      "adress": "Rua justos",
      "cep": 32451124,
      "select": ["Profissa"],
      "service": "Pedreiro",
      "softSkills": "Sou pontual, organizado e responsável.",
      "hardSkills": "Azulejista, habilidade na operação de máquinas de construção, conhecimento em alvenaria e interpretação de projetos.",
      "about": "Confiável, trabalhador da Construção Civil com mais de 15 anos de experiência. Excelente trabalho em equipe, construções rápidas, com segurança e eficiência.",
      "previousJob": [
        "https://image.freepik.com/fotos-gratis/plugue-de-montagem-do-tecnico-de-colheita_23-2147743071.jpg",
        "https://image.freepik.com/fotos-gratis/construcao-de-casa-nova-residencial-em-andamento-no-canteiro-de-obras_293060-461.jpg",
        "https://image.freepik.com/fotos-gratis/grupo-de-engenheiros-construtores-arquitetos-no-canteiro-de-obras_116407-2715.jpg",
        "https://image.freepik.com/fotos-gratis/canalizador-de-encanamento-com-chave-inglesa_23-2147772228.jpg"
      ],
      "image": "https://image.freepik.com/fotos-gratis/homem-concentrado-com-tijolo_151013-3141.jpg",
      "id": 9
    },
    {
      "email": "olivia@gmail.com",
      "password": "$2a$10$zCG4nAWkTAjL13RbLLitXuhrGBDW5PWRvdVTYDDf7cY1A/wyZnNFi",
      "name": "olivia",
      "cpf": "34212221432",
      "adress": "Rua sorito",
      "cep": 32451125,
      "select": ["Profissa"],
      "service": "Programador",
      "softSkills": "Sou comunicativo, responsável e gosto de trabalhar em equipe.",
      "hardSkills": "Conhecimento em HTML, CSS, JAVASCRIPT, GIT e React",
      "about": "Experiência de 7 anos na função, domínio de boas práticas de programação. Tenho vários cursos na área.",
      "previousJob": [
        "https://image.freepik.com/fotos-gratis/monitor-de-computador_236854-21701.jpg",
        "https://image.freepik.com/fotos-gratis/ux-ui-e-tecnologia-de-desenvolvimento-de-programacao_1421-4003.jpg",
        "https://image.freepik.com/fotos-gratis/programador-desenvolvedor-profissional-que-trabalha-com-design-de-sites-de-software-e-tecnologia-de-codificacao-escrevendo-codigos-e-banco-de-dados-no-escritorio-da-empresa-tecnologia-global-de-conexao-cibernetica_122498-189.jpg",
        "https://br.freepik.com/vetores-premium/conceito-de-programacao_3512483.htm#page=8&query=JAVASCRIPT&position=13"
      ],
      "image": "https://image.freepik.com/fotos-gratis/sorridente-e-fofa-jovem-programadora-adolescente-comeca-a-programar-segurando-o-laptop-e-parecendo-satisfeita_176420-25906.jpg",
      "id": 10
    },
    {
      "email": "ana@gmail.com",
      "password": "$2a$10$KABbTqQrT16mDHOYPl22TeeZsnXSJ9VVCywyLxiSjibXdKPdDkRca",
      "name": "ana",
      "cpf": "34212221432",
      "adress": "Rua juan",
      "cep": 32451126,
      "select": ["Profissa"],
      "service": "Programador",
      "softSkills": "Sou comunicativo, responsável e gosto de trabalhar em equipe.",
      "hardSkills": "Conhecimento em HTML, CSS, JAVASCRIPT, GIT e React",
      "about": "Experiência de 7 anos na função, domínio de boas práticas de programação. Tenho vários cursos na área.",
      "previousJob": [
        "https://image.freepik.com/fotos-gratis/monitor-de-computador_236854-21701.jpg",
        "https://image.freepik.com/fotos-gratis/ux-ui-e-tecnologia-de-desenvolvimento-de-programacao_1421-4003.jpg",
        "https://image.freepik.com/fotos-gratis/programador-desenvolvedor-profissional-que-trabalha-com-design-de-sites-de-software-e-tecnologia-de-codificacao-escrevendo-codigos-e-banco-de-dados-no-escritorio-da-empresa-tecnologia-global-de-conexao-cibernetica_122498-189.jpg",
        "https://br.freepik.com/vetores-premium/conceito-de-programacao_3512483.htm#page=8&query=JAVASCRIPT&position=13"
      ],
      "image": "https://image.freepik.com/fotos-gratis/programadora-tomando-cafe_274689-11988.jpg",
      "id": 11
    },
    {
      "email": "ricardo@gmail.com",
      "password": "$2a$10$LbdLHEPwAVBD/qc9SFozFOhLjPWCFtH5PTlL5J1uxgLsCByKCLST2",
      "name": "ricardo",
      "cpf": "35122451231",
      "adress": "Rua hilford",
      "cep": 32451133,
      "select": ["Cliente"],
      "image": "https://image.freepik.com/fotos-gratis/jovem-feliz_1098-20869.jpg",
      "id": 12
    },
    {
      "email": "vitoria@gmail.com",
      "password": "$2a$10$xL6wO38MFckNarrirtlhfOq/WTTkSNXlf1y7oA6sB381PAE89bFIe",
      "name": "vitoria",
      "cpf": "34212451231",
      "adress": "Rua salazar",
      "cep": 32451128,
      "select": ["Cliente"],
      "image": "https://image.freepik.com/fotos-gratis/alegre-mulher-envelhecida-media-com-cabelos-cacheados_1262-20859.jpg",
      "id": 13
    },
    {
      "email": "annie@gmail.com",
      "password": "$2a$10$rDjMWZCeix0rpL.1dFCm6uvtZG60TZkupC/JmOLDzpeViPjK.ISrq",
      "name": "annie",
      "cpf": "34212312512",
      "adress": "Rua loren",
      "cep": 32451134,
      "select": ["Cliente"],
      "image": "https://image.freepik.com/fotos-gratis/mulher-jovem-parda-de-aparencia-amigavel-com-cabelos-cacheados-cacheados-e-sorrindo-alegremente_273609-13896.jpg",
      "id": 14
    },
    {
      "email": "rino@gmail.com",
      "password": "$2a$10$e1QmZsvnOxjZ9vikmx7v1eJeoNseHB9aMz4VIQ5D.Vn0EtlmAl3Nu",
      "name": "rino",
      "cpf": "3421234232",
      "adress": "Rua ipsun",
      "cep": 32451120,
      "select": ["Cliente"],
      "image": "https://image.freepik.com/fotos-gratis/homem-alegre-envelhecido-em-t-shirt_23-2148036548.jpg",
      "id": 15
    }
  ],
  "feedbacks": [
    {
      "creatorId": 12,
      "creator": {
        "email": "ricardo@gmail.com",
        "name": "ricardo",
        "cpf": "35122451231",
        "adress": "Rua hilford",
        "cep": 32451133,
        "select": ["Cliente"]
      },
      "receiverId": 1,
      "receiverType": "Profissa",
      "feedback": "Gostei bastante do serviço, a reforma da casa ficou ótima!",
      "stars": 4,
      "id": 2
    },
    {
      "creatorId": 12,
      "creator": {
        "email": "ricardo@gmail.com",
        "name": "ricardo",
        "cpf": "35122451231",
        "adress": "Rua hilford",
        "cep": 32451133,
        "select": ["Cliente"]
      },
      "receiverId": 2,
      "receiverType": "Profissa",
      "feedback": "Cuidou da minha vó em casa, muito atenciosa e responsável!",
      "stars": 4,
      "id": 3
    },
    {
      "creatorId": 12,
      "creator": {
        "email": "ricardo@gmail.com",
        "name": "ricardo",
        "cpf": "35122451231",
        "adress": "Rua hilford",
        "cep": 32451133,
        "select": ["Cliente"]
      },
      "receiverId": 3,
      "receiverType": "Profissa",
      "feedback": "Responsável, passou ótimos treinos que consegui fazer, mesmo na correira do dia a dia!",
      "stars": 4,
      "id": 4
    },
    {
      "creatorId": 12,
      "creator": {
        "email": "ricardo@gmail.com",
        "name": "ricardo",
        "cpf": "35122451231",
        "adress": "Rua hilford",
        "cep": 32451133,
        "select": ["Cliente"]
      },
      "receiverId": 4,
      "receiverType": "Profissa",
      "feedback": "Muito competente, a pintura da minha casa nova ficou ótima!",
      "stars": 4,
      "id": 5
    },
    {
      "creatorId": 12,
      "creator": {
        "email": "ricardo@gmail.com",
        "name": "ricardo",
        "cpf": "35122451231",
        "adress": "Rua hilford",
        "cep": 32451133,
        "select": ["Cliente"]
      },
      "receiverId": 5,
      "receiverType": "Profissa",
      "feedback": "profissional nota 10",
      "stars": 4,
      "id": 6
    },
    {
      "creatorId": 12,
      "creator": {
        "email": "ricardo@gmail.com",
        "name": "ricardo",
        "cpf": "35122451231",
        "adress": "Rua hilford",
        "cep": 32451133,
        "select": ["Cliente"]
      },
      "receiverId": 6,
      "receiverType": "Profissa",
      "feedback": "Fez um site para minha loja em três dias!",
      "stars": 4,
      "id": 7
    },
    {
      "creatorId": 12,
      "creator": {
        "email": "ricardo@gmail.com",
        "name": "ricardo",
        "cpf": "35122451231",
        "adress": "Rua hilford",
        "cep": 32451133,
        "select": ["Cliente"]
      },
      "receiverId": 7,
      "receiverType": "Profissa",
      "feedback": "profissional nota 10",
      "stars": 4,
      "id": 8
    },
    {
      "creatorId": 12,
      "creator": {
        "email": "ricardo@gmail.com",
        "name": "ricardo",
        "cpf": "35122451231",
        "adress": "Rua hilford",
        "cep": 32451133,
        "select": ["Cliente"]
      },
      "receiverId": 8,
      "receiverType": "Profissa",
      "feedback": "profissional nota 10",
      "stars": 4,
      "id": 9
    },
    {
      "creatorId": 12,
      "creator": {
        "email": "ricardo@gmail.com",
        "name": "ricardo",
        "cpf": "35122451231",
        "adress": "Rua hilford",
        "cep": 32451133,
        "select": ["Cliente"]
      },
      "receiverId": 9,
      "receiverType": "Profissa",
      "feedback": "profissional nota 10",
      "stars": 4,
      "id": 10
    },
    {
      "creatorId": 12,
      "creator": {
        "email": "ricardo@gmail.com",
        "name": "ricardo",
        "cpf": "35122451231",
        "adress": "Rua hilford",
        "cep": 32451133,
        "select": ["Cliente"]
      },
      "receiverId": 10,
      "receiverType": "Profissa",
      "feedback": "profissional nota 10",
      "stars": 4,
      "id": 11
    },
    {
      "creatorId": 12,
      "creator": {
        "email": "ricardo@gmail.com",
        "name": "ricardo",
        "cpf": "35122451231",
        "adress": "Rua hilford",
        "cep": 32451133,
        "select": ["Cliente"]
      },
      "receiverId": 11,
      "receiverType": "Profissa",
      "feedback": "profissional nota 10",
      "stars": 4,
      "id": 12
    },
    {
      "creatorId": 13,
      "creator": {
        "email": "vitoria@gmail.com",
        "name": "vitoria",
        "cpf": "34212451231",
        "adress": "Rua salazar",
        "cep": 32451128,
        "select": ["Cliente"]
      },
      "receiverId": 1,
      "receiverType": "Profissa",
      "feedback": "Orçamento com preço justo e serviço rápido!",
      "stars": 5,
      "id": 13
    },
    {
      "creatorId": 13,
      "creator": {
        "email": "vitoria@gmail.com",
        "name": "vitoria",
        "cpf": "34212451231",
        "adress": "Rua salazar",
        "cep": 32451128,
        "select": ["Cliente"]
      },
      "receiverId": 3,
      "receiverType": "Profissa",
      "feedback": "Recomendo, é o profissa que acompanha toda a minha família!",
      "stars": 5,
      "id": 14
    },
    {
      "creatorId": 13,
      "creator": {
        "email": "vitoria@gmail.com",
        "name": "vitoria",
        "cpf": "34212451231",
        "adress": "Rua salazar",
        "cep": 32451128,
        "select": ["Cliente"]
      },
      "receiverId": 4,
      "receiverType": "Profissa",
      "feedback": "Gostei do acabamento, o trabalho foi muito bem feito!",
      "stars": 5,
      "id": 15
    },
    {
      "creatorId": 13,
      "creator": {
        "email": "vitoria@gmail.com",
        "name": "vitoria",
        "cpf": "34212451231",
        "adress": "Rua salazar",
        "cep": 32451128,
        "select": ["Cliente"]
      },
      "receiverId": 4,
      "receiverType": "Profissa",
      "feedback": "Otimo Profissa, o serviço foi rápido e o preço justo!",
      "stars": 5,
      "id": 16
    },
    {
      "creatorId": 13,
      "creator": {
        "email": "vitoria@gmail.com",
        "name": "vitoria",
        "cpf": "34212451231",
        "adress": "Rua salazar",
        "cep": 32451128,
        "select": ["Cliente"]
      },
      "receiverId": 5,
      "receiverType": "Profissa",
      "feedback": "Otimo Profissa",
      "stars": 5,
      "id": 17
    },
    {
      "creatorId": 13,
      "creator": {
        "email": "vitoria@gmail.com",
        "name": "vitoria",
        "cpf": "34212451231",
        "adress": "Rua salazar",
        "cep": 32451128,
        "select": ["Cliente"]
      },
      "receiverId": 5,
      "receiverType": "Profissa",
      "feedback": "Otimo Profissa",
      "stars": 5,
      "id": 18
    },
    {
      "creatorId": 13,
      "creator": {
        "email": "vitoria@gmail.com",
        "name": "vitoria",
        "cpf": "34212451231",
        "adress": "Rua salazar",
        "cep": 32451128,
        "select": ["Cliente"]
      },
      "receiverId": 5,
      "receiverType": "Profissa",
      "feedback": "Otimo Profissa",
      "stars": 5,
      "id": 19
    },
    {
      "creatorId": 13,
      "creator": {
        "email": "vitoria@gmail.com",
        "name": "vitoria",
        "cpf": "34212451231",
        "adress": "Rua salazar",
        "cep": 32451128,
        "select": ["Cliente"]
      },
      "receiverId": 6,
      "receiverType": "Profissa",
      "feedback": "Tive uma ideia de um aplicativo, mas não sabia onde encontrar um dev, graças a esse site achei um profissa nota 10!",
      "stars": 5,
      "id": 20
    },
    {
      "creatorId": 13,
      "creator": {
        "email": "vitoria@gmail.com",
        "name": "vitoria",
        "cpf": "34212451231",
        "adress": "Rua salazar",
        "cep": 32451128,
        "select": ["Cliente"]
      },
      "receiverId": 7,
      "receiverType": "Profissa",
      "feedback": "Otimo Profissa",
      "stars": 5,
      "id": 21
    },
    {
      "creatorId": 13,
      "creator": {
        "email": "vitoria@gmail.com",
        "name": "vitoria",
        "cpf": "34212451231",
        "adress": "Rua salazar",
        "cep": 32451128,
        "select": ["Cliente"]
      },
      "receiverId": 8,
      "receiverType": "Profissa",
      "feedback": "Otimo Profissa",
      "stars": 5,
      "id": 22
    },
    {
      "creatorId": 13,
      "creator": {
        "email": "vitoria@gmail.com",
        "name": "vitoria",
        "cpf": "34212451231",
        "adress": "Rua salazar",
        "cep": 32451128,
        "select": ["Cliente"]
      },
      "receiverId": 8,
      "receiverType": "Profissa",
      "feedback": "Otimo Profissa",
      "stars": 5,
      "id": 23
    },
    {
      "creatorId": 13,
      "creator": {
        "email": "vitoria@gmail.com",
        "name": "vitoria",
        "cpf": "34212451231",
        "adress": "Rua salazar",
        "cep": 32451128,
        "select": ["Cliente"]
      },
      "receiverId": 8,
      "receiverType": "Profissa",
      "feedback": "Otimo Profissa",
      "stars": 5,
      "id": 24
    },
    {
      "creatorId": 13,
      "creator": {
        "email": "vitoria@gmail.com",
        "name": "vitoria",
        "cpf": "34212451231",
        "adress": "Rua salazar",
        "cep": 32451128,
        "select": ["Cliente"]
      },
      "receiverId": 9,
      "receiverType": "Profissa",
      "feedback": "Otimo Profissa",
      "stars": 5,
      "id": 25
    },
    {
      "creatorId": 13,
      "creator": {
        "email": "vitoria@gmail.com",
        "name": "vitoria",
        "cpf": "34212451231",
        "adress": "Rua salazar",
        "cep": 32451128,
        "select": ["Cliente"]
      },
      "receiverId": 10,
      "receiverType": "Profissa",
      "feedback": "Otimo Profissa",
      "stars": 5,
      "id": 26
    },
    {
      "creatorId": 13,
      "creator": {
        "email": "vitoria@gmail.com",
        "name": "vitoria",
        "cpf": "34212451231",
        "adress": "Rua salazar",
        "cep": 32451128,
        "select": ["Cliente"]
      },
      "receiverId": 11,
      "receiverType": "Profissa",
      "feedback": "Otimo Profissa",
      "stars": 5,
      "id": 27
    },
    {
      "creatorId": 14,
      "creator": {
        "email": "annie@gmail.com",
        "name": "annie",
        "cpf": "34212312512",
        "adress": "Rua loren",
        "cep": 32451134,
        "select": ["Cliente"]
      },
      "receiverId": 1,
      "receiverType": "Profissa",
      "feedback": "Precisei de um pedreiro para consertar um problema em minha residência, fiquei preocupada pois não conhecia ninguém, porém encontrei esse profissa nota 10 aqui no site!",
      "stars": 5,
      "id": 28
    },
    {
      "creatorId": 14,
      "creator": {
        "email": "annie@gmail.com",
        "name": "annie",
        "cpf": "34212312512",
        "adress": "Rua loren",
        "cep": 32451134,
        "select": ["Cliente"]
      },
      "receiverId": 3,
      "receiverType": "Profissa",
      "feedback": "Tem bastante experiência, muito responsável!",
      "stars": 5,
      "id": 29
    },
    {
      "creatorId": 14,
      "creator": {
        "email": "annie@gmail.com",
        "name": "annie",
        "cpf": "34212312512",
        "adress": "Rua loren",
        "cep": 32451134,
        "select": ["Cliente"]
      },
      "receiverId": 4,
      "receiverType": "Profissa",
      "feedback": "Profissa muito bom, recomendo o seu trabalho.",
      "stars": 5,
      "id": 30
    },
    {
      "creatorId": 14,
      "creator": {
        "email": "annie@gmail.com",
        "name": "annie",
        "cpf": "34212312512",
        "adress": "Rua loren",
        "cep": 32451134,
        "select": ["Cliente"]
      },
      "receiverId": 5,
      "receiverType": "Profissa",
      "feedback": "Profissa muito bom",
      "stars": 5,
      "id": 31
    },
    {
      "creatorId": 14,
      "creator": {
        "email": "annie@gmail.com",
        "name": "annie",
        "cpf": "34212312512",
        "adress": "Rua loren",
        "cep": 32451134,
        "select": ["Cliente"]
      },
      "receiverId": 6,
      "receiverType": "Profissa",
      "feedback": "Resolveu todos os bugs do meu site!",
      "stars": 5,
      "id": 32
    },
    {
      "creatorId": 14,
      "creator": {
        "email": "annie@gmail.com",
        "name": "annie",
        "cpf": "34212312512",
        "adress": "Rua loren",
        "cep": 32451134,
        "select": ["Cliente"]
      },
      "receiverId": 7,
      "receiverType": "Profissa",
      "feedback": "Profissa muito bom",
      "stars": 5,
      "id": 33
    },
    {
      "creatorId": 14,
      "creator": {
        "email": "annie@gmail.com",
        "name": "annie",
        "cpf": "34212312512",
        "adress": "Rua loren",
        "cep": 32451134,
        "select": ["Cliente"]
      },
      "receiverId": 8,
      "receiverType": "Profissa",
      "feedback": "Profissa muito bom",
      "stars": 5,
      "id": 34
    },
    {
      "creatorId": 14,
      "creator": {
        "email": "annie@gmail.com",
        "name": "annie",
        "cpf": "34212312512",
        "adress": "Rua loren",
        "cep": 32451134,
        "select": ["Cliente"]
      },
      "receiverId": 9,
      "receiverType": "Profissa",
      "feedback": "Profissa muito bom",
      "stars": 5,
      "id": 35
    },
    {
      "creatorId": 14,
      "creator": {
        "email": "annie@gmail.com",
        "name": "annie",
        "cpf": "34212312512",
        "adress": "Rua loren",
        "cep": 32451134,
        "select": ["Cliente"]
      },
      "receiverId": 10,
      "receiverType": "Profissa",
      "feedback": "Profissa muito bom",
      "stars": 5,
      "id": 36
    },
    {
      "creatorId": 14,
      "creator": {
        "email": "annie@gmail.com",
        "name": "annie",
        "cpf": "34212312512",
        "adress": "Rua loren",
        "cep": 32451134,
        "select": ["Cliente"]
      },
      "receiverId": 11,
      "receiverType": "Profissa",
      "feedback": "Profissa muito bom",
      "stars": 5,
      "id": 37
    },
    {
      "creatorId": 15,
      "creator": {
        "email": "rino@gmail.com",
        "name": "rino",
        "cpf": "3421234232",
        "adress": "Rua ipsun",
        "cep": 32451120,
        "select": ["Cliente"]
      },
      "receiverId": 1,
      "receiverType": "Profissa",
      "feedback": "Recomendo esse profissa!",
      "stars": 5,
      "id": 38
    },
    {
      "creatorId": 15,
      "creator": {
        "email": "rino@gmail.com",
        "name": "rino",
        "cpf": "3421234232",
        "adress": "Rua ipsun",
        "cep": 32451120,
        "select": ["Cliente"]
      },
      "receiverId": 2,
      "receiverType": "Profissa",
      "feedback": "Trabalhou em minha escola como orientadora de educação em saúde, muito inteligente!",
      "stars": 5,
      "id": 39
    },
    {
      "creatorId": 15,
      "creator": {
        "email": "rino@gmail.com",
        "name": "rino",
        "cpf": "3421234232",
        "adress": "Rua ipsun",
        "cep": 32451120,
        "select": ["Cliente"]
      },
      "receiverId": 3,
      "receiverType": "Profissa",
      "feedback": "Profissa massa, foi meu personal por alguns mêses, preço justo! Além disso, consegui emagrecer!",
      "stars": 5,
      "id": 40
    },
    {
      "creatorId": 15,
      "creator": {
        "email": "rino@gmail.com",
        "name": "rino",
        "cpf": "3421234232",
        "adress": "Rua ipsun",
        "cep": 32451120,
        "select": ["Cliente"]
      },
      "receiverId": 4,
      "receiverType": "Profissa",
      "feedback": "O orçamento foi bem adequado e forma de pagamento facilitada!",
      "stars": 5,
      "id": 41
    },
    {
      "creatorId": 15,
      "creator": {
        "email": "rino@gmail.com",
        "name": "rino",
        "cpf": "3421234232",
        "adress": "Rua ipsun",
        "cep": 32451120,
        "select": ["Cliente"]
      },
      "receiverId": 5,
      "receiverType": "Profissa",
      "feedback": "Profissa massa",
      "stars": 5,
      "id": 42
    },
    {
      "creatorId": 15,
      "creator": {
        "email": "rino@gmail.com",
        "name": "rino",
        "cpf": "3421234232",
        "adress": "Rua ipsun",
        "cep": 32451120,
        "select": ["Cliente"]
      },
      "receiverId": 6,
      "receiverType": "Profissa",
      "feedback": "Precisei de um sistema para a loja da minha prima, e a entrega foi rápida e com qualidade!",
      "stars": 5,
      "id": 43
    },
    {
      "creatorId": 15,
      "creator": {
        "email": "rino@gmail.com",
        "name": "rino",
        "cpf": "3421234232",
        "adress": "Rua ipsun",
        "cep": 32451120,
        "select": ["Cliente"]
      },
      "receiverId": 7,
      "receiverType": "Profissa",
      "feedback": "Profissa massa",
      "stars": 5,
      "id": 44
    },
    {
      "creatorId": 15,
      "creator": {
        "email": "rino@gmail.com",
        "name": "rino",
        "cpf": "3421234232",
        "adress": "Rua ipsun",
        "cep": 32451120,
        "select": ["Cliente"]
      },
      "receiverId": 7,
      "receiverType": "Profissa",
      "feedback": "Profissa massa",
      "stars": 5,
      "id": 45
    },
    {
      "creatorId": 15,
      "creator": {
        "email": "rino@gmail.com",
        "name": "rino",
        "cpf": "3421234232",
        "adress": "Rua ipsun",
        "cep": 32451120,
        "select": ["Cliente"]
      },
      "receiverId": 7,
      "receiverType": "Profissa",
      "feedback": "Profissa massa",
      "stars": 5,
      "id": 46
    },
    {
      "creatorId": 15,
      "creator": {
        "email": "rino@gmail.com",
        "name": "rino",
        "cpf": "3421234232",
        "adress": "Rua ipsun",
        "cep": 32451120,
        "select": ["Cliente"]
      },
      "receiverId": 8,
      "receiverType": "Profissa",
      "feedback": "Profissa massa",
      "stars": 5,
      "id": 47
    },
    {
      "creatorId": 15,
      "creator": {
        "email": "rino@gmail.com",
        "name": "rino",
        "cpf": "3421234232",
        "adress": "Rua ipsun",
        "cep": 32451120,
        "select": ["Cliente"]
      },
      "receiverId": 9,
      "receiverType": "Profissa",
      "feedback": "Profissa massa",
      "stars": 5,
      "id": 48
    },
    {
      "creatorId": 15,
      "creator": {
        "email": "rino@gmail.com",
        "name": "rino",
        "cpf": "3421234232",
        "adress": "Rua ipsun",
        "cep": 32451120,
        "select": ["Cliente"]
      },
      "receiverId": 10,
      "receiverType": "Profissa",
      "feedback": "Profissa massa",
      "stars": 5,
      "id": 49
    },
    {
      "creatorId": 15,
      "creator": {
        "email": "rino@gmail.com",
        "name": "rino",
        "cpf": "3421234232",
        "adress": "Rua ipsun",
        "cep": 32451120,
        "select": ["Cliente"]
      },
      "receiverId": 10,
      "receiverType": "Profissa",
      "feedback": "Profissa massa",
      "stars": 5,
      "id": 50
    },
    {
      "creatorId": 15,
      "creator": {
        "email": "rino@gmail.com",
        "name": "rino",
        "cpf": "3421234232",
        "adress": "Rua ipsun",
        "cep": 32451120,
        "select": ["Cliente"]
      },
      "receiverId": 10,
      "receiverType": "Profissa",
      "feedback": "Profissa massa",
      "stars": 5,
      "id": 51
    },
    {
      "creatorId": 15,
      "creator": {
        "email": "rino@gmail.com",
        "name": "rino",
        "cpf": "3421234232",
        "adress": "Rua ipsun",
        "cep": 32451120,
        "select": ["Cliente"]
      },
      "receiverId": 11,
      "receiverType": "Profissa",
      "feedback": "Profissa massa",
      "stars": 5,
      "id": 52
    }
  ],
  "schedule": [
    {
      "clienteId": 12,
      "profissaId": 1,
      "profissa": {
        "email": "alanPires@gmail.com",
        "password": "$2a$10$TuN1speMggvTmEmg7aC43.OufcydPGYXVrbQLByZ6c7wlnREJKFpu",
        "name": "Alan Pires",
        "cpf": "78489582148",
        "adress": "Rua Alameda",
        "cep": 12155654,
        "select": ["Profissa"],
        "service": "Pedreiro",
        "softSkills": "Sou pontual, organizado e responsável.",
        "hardSkills": "Azulejista, habilidade na operação de máquinas de construção, conhecimento em alvenaria e interpretação de projetos.",
        "about": "Confiável, trabalhador da Construção Civil com mais de 15 anos de experiência. Excelente trabalho em equipe, construções rápidas, com segurança e eficiência.",
        "previousJob": [
          "https://image.freepik.com/fotos-gratis/plugue-de-montagem-do-tecnico-de-colheita_23-2147743071.jpg",
          "https://image.freepik.com/fotos-gratis/construcao-de-casa-nova-residencial-em-andamento-no-canteiro-de-obras_293060-461.jpg",
          "https://image.freepik.com/fotos-gratis/grupo-de-engenheiros-construtores-arquitetos-no-canteiro-de-obras_116407-2715.jpg",
          "https://image.freepik.com/fotos-gratis/canalizador-de-encanamento-com-chave-inglesa_23-2147772228.jpg"
        ],
        "image": "https://image.freepik.com/fotos-gratis/retrato-de-corpo-inteiro-de-um-jovem-construtor-masculino-confiante_171337-5191.jpg",
        "id": 1
      },
      "typeService": "Pedreiro",
      "details": "Arrumar o piso da area de serviço",
      "schedule": "2020-11-21",
      "id": 1
    },
    {
      "clienteId": 13,
      "profissaId": 1,
      "profissa": {
        "email": "alanPires@gmail.com",
        "password": "$2a$10$TuN1speMggvTmEmg7aC43.OufcydPGYXVrbQLByZ6c7wlnREJKFpu",
        "name": "Alan Pires",
        "cpf": "78489582148",
        "adress": "Rua Alameda",
        "cep": 12155654,
        "select": ["Profissa"],
        "service": "Pedreiro",
        "softSkills": "Sou pontual, organizado e responsável.",
        "hardSkills": "Azulejista, habilidade na operação de máquinas de construção, conhecimento em alvenaria e interpretação de projetos.",
        "about": "Confiável, trabalhador da Construção Civil com mais de 15 anos de experiência. Excelente trabalho em equipe, construções rápidas, com segurança e eficiência.",
        "previousJob": [
          "https://image.freepik.com/fotos-gratis/plugue-de-montagem-do-tecnico-de-colheita_23-2147743071.jpg",
          "https://image.freepik.com/fotos-gratis/construcao-de-casa-nova-residencial-em-andamento-no-canteiro-de-obras_293060-461.jpg",
          "https://image.freepik.com/fotos-gratis/grupo-de-engenheiros-construtores-arquitetos-no-canteiro-de-obras_116407-2715.jpg",
          "https://image.freepik.com/fotos-gratis/canalizador-de-encanamento-com-chave-inglesa_23-2147772228.jpg"
        ],
        "id": 1
      },
      "typeService": "Pedreiro",
      "details": "Rebocar as paredes da garagem e pinta-las",
      "schedule": "2020-11-12",
      "id": 2
    },
    {
      "clienteId": 14,
      "profissaId": 1,
      "profissa": {
        "email": "alanPires@gmail.com",
        "password": "$2a$10$TuN1speMggvTmEmg7aC43.OufcydPGYXVrbQLByZ6c7wlnREJKFpu",
        "name": "Alan Pires",
        "cpf": "78489582148",
        "adress": "Rua Alameda",
        "cep": 12155654,
        "select": ["Profissa"],
        "service": "Pedreiro",
        "softSkills": "Sou pontual, organizado e responsável.",
        "hardSkills": "Azulejista, habilidade na operação de máquinas de construção, conhecimento em alvenaria e interpretação de projetos.",
        "about": "Confiável, trabalhador da Construção Civil com mais de 15 anos de experiência. Excelente trabalho em equipe, construções rápidas, com segurança e eficiência.",
        "previousJob": [
          "https://image.freepik.com/fotos-gratis/plugue-de-montagem-do-tecnico-de-colheita_23-2147743071.jpg",
          "https://image.freepik.com/fotos-gratis/construcao-de-casa-nova-residencial-em-andamento-no-canteiro-de-obras_293060-461.jpg",
          "https://image.freepik.com/fotos-gratis/grupo-de-engenheiros-construtores-arquitetos-no-canteiro-de-obras_116407-2715.jpg",
          "https://image.freepik.com/fotos-gratis/canalizador-de-encanamento-com-chave-inglesa_23-2147772228.jpg"
        ],
        "id": 1
      },
      "typeService": "Pedreiro",
      "details": "Colocar o piso no quarto dos fundos",
      "schedule": "2020-11-18",
      "id": 3
    },
    {
      "clienteId": 15,
      "profissaId": 1,
      "profissa": {
        "email": "alanPires@gmail.com",
        "password": "$2a$10$TuN1speMggvTmEmg7aC43.OufcydPGYXVrbQLByZ6c7wlnREJKFpu",
        "name": "Alan Pires",
        "cpf": "78489582148",
        "adress": "Rua Alameda",
        "cep": 12155654,
        "select": ["Profissa"],
        "service": "Pedreiro",
        "softSkills": "Sou pontual, organizado e responsável.",
        "hardSkills": "Azulejista, habilidade na operação de máquinas de construção, conhecimento em alvenaria e interpretação de projetos.",
        "about": "Confiável, trabalhador da Construção Civil com mais de 15 anos de experiência. Excelente trabalho em equipe, construções rápidas, com segurança e eficiência.",
        "previousJob": [
          "https://image.freepik.com/fotos-gratis/plugue-de-montagem-do-tecnico-de-colheita_23-2147743071.jpg",
          "https://image.freepik.com/fotos-gratis/construcao-de-casa-nova-residencial-em-andamento-no-canteiro-de-obras_293060-461.jpg",
          "https://image.freepik.com/fotos-gratis/grupo-de-engenheiros-construtores-arquitetos-no-canteiro-de-obras_116407-2715.jpg",
          "https://image.freepik.com/fotos-gratis/canalizador-de-encanamento-com-chave-inglesa_23-2147772228.jpg"
        ],
        "id": 1
      },
      "typeService": "Pedreiro",
      "details": "Acimentar a garagem para fazer o nivelamento e colocar pisos",
      "schedule": "2020-11-30",
      "id": 4
    }
  ]
}
